<?xml version="1.0" encoding="UTF-8" standalone="no"?>
<svg width="51px" height="51px" viewBox="0 0 51 51" version="1.1" xmlns="http://www.w3.org/2000/svg" xmlns:xlink="http://www.w3.org/1999/xlink">
    <!-- Generator: sketchtool 39.1 (31720) - http://www.bohemiancoding.com/sketch -->
    <title>FBA0B13A-49A7-49D2-88EA-759C13D683FF</title>
    <desc>Created with sketchtool.</desc>
    <defs>
        <polygon id="path-1" points="0 0 17.34375 0 29.53125 32.8125 0 32.8125"></polygon>
        <filter x="-50%" y="-50%" width="200%" height="200%" filterUnits="objectBoundingBox" id="filter-2">
            <feOffset dx="4" dy="0" in="SourceAlpha" result="shadowOffsetOuter1"></feOffset>
            <feGaussianBlur stdDeviation="2" in="shadowOffsetOuter1" result="shadowBlurOuter1"></feGaussianBlur>
            <feColorMatrix values="0 0 0 0 0   0 0 0 0 0   0 0 0 0 0  0 0 0 0.2 0" type="matrix" in="shadowBlurOuter1"></feColorMatrix>
        </filter>
    </defs>
    <g id="Symbols" stroke="none" stroke-width="1" fill="none" fill-rule="evenodd">
        <g id="Top-Bar---Header" transform="translate(-564.000000, -24.000000)">
            <g id="languages-copy">
                <g transform="translate(540.000000, 0.000000)">
                    <rect id="bg" fill="#FFFFFF" opacity="0.1" x="0" y="0" width="100" height="100"></rect>
                    <g id="Transalate-icon" transform="translate(28.125000, 30.937500)">
                        <polygon id="Rectangle" fill="#48C7F3" opacity="0.5" points="11.71875 4.6875 40.3125 4.6875 40.3125 37.5 22.96875 37.5"></polygon>
                        <g id="Translate" opacity="0.800000012" transform="translate(22.500000, 12.187500)" fill="#FFFFFF">
                            <polygon id="Path-4" stroke="#FFFFFF" stroke-width="2" points="14.9378894 3.79518072 14.9378894 2.34939759 0 2.34939759 0 3.79518072"></polygon>
                            <path d="M7.45822999,8.4339866 C7.38907481,8.5190144 7.31794229,8.60489707 7.24487688,8.69160332 C6.73788133,9.29325169 6.14357115,9.92802021 5.4798793,10.5844041 C4.67185474,11.3835315 3.80435644,12.1728512 2.93670901,12.9165479 C2.6329811,13.1768857 2.3511041,13.4127765 2.09843989,13.6198274 C2.0102918,13.6920622 1.93218911,13.7554564 1.86505048,13.8094628 C1.82523359,13.8414916 1.79820974,13.8630458 1.78489688,13.8735792 L2.5853394,14.8610076 C2.6013056,14.8483749 2.63100993,14.8246828 2.67354038,14.7904712 C2.74364734,14.734077 2.82474952,14.6682482 2.91593567,14.5935238 C3.17565497,14.3806914 3.46471959,14.1387856 3.7758519,13.8721012 C4.66494795,13.1100201 5.55419312,12.3009132 6.3857958,11.4784674 C7.07512021,10.7967332 7.69509191,10.1345562 8.22896608,9.50101112 C8.3067202,9.4087408 8.38254634,9.31719123 8.45640416,9.22638144 C10.2651559,7.00248181 11.6474737,4.55142121 11.8670902,3.48999514 L10.6125449,3.23663796 C10.4411776,4.06487092 9.15074978,6.35299674 7.45822999,8.4339866 Z" id="Path-5" stroke="#FFFFFF" stroke-width="2"></path>
                            <path d="M4.43000925,6.41931617 C4.99303674,7.33349412 5.66707562,8.28595648 6.43194617,9.22638144 C6.50580399,9.31719123 6.58163012,9.4087408 6.65938425,9.50101112 C7.19325842,10.1345562 7.81323012,10.7967332 8.50255453,11.4784674 C9.33415721,12.3009132 10.2234024,13.1100201 11.1124984,13.8721012 C11.4236307,14.1387856 11.7126954,14.3806914 11.9724147,14.5935238 C12.0636008,14.6682482 12.144703,14.734077 12.2148099,14.7904712 C12.2573404,14.8246828 12.2870447,14.8483749 12.3030109,14.8610076 L13.1034534,13.8735792 C13.0901406,13.8630458 13.0631167,13.8414916 13.0232998,13.8094628 C12.9561612,13.7554564 12.8780585,13.6920622 12.7899104,13.6198274 C12.5372462,13.4127765 12.2553692,13.1768857 11.9516413,12.9165479 C11.0839939,12.1728512 10.2164956,11.3835315 9.40847103,10.5844041 C8.74477917,9.92802021 8.15046899,9.29325169 7.64347345,8.69160332 C7.57040804,8.60489707 7.49927552,8.5190144 7.43012034,8.4339866 C6.95391593,7.84848293 6.28999343,7.10027155 5.8398628,6.41931617 C5.02798807,6.41931617 5.14165876,6.41931616 4.43000925,6.41931617 Z" id="Path-5-Copy" stroke="#FFFFFF" stroke-width="2"></path>
                            <rect id="Rectangle-3" x="6.40243902" y="0" width="2.19512195" height="2.89156627"></rect>
                        </g>
                        <g id="Rectangle-Copy">
                            <use fill="black" fill-opacity="1" filter="url(#filter-2)" xlink:href="#path-1"></use>
                            <use fill="#48C7F3" fill-rule="evenodd" xlink:href="#path-1"></use>
                        </g>
                        <polygon id="Rectangle-Copy-2" fill="#3B9EC0" points="22.9704094 37.5161934 29.53125 32.8125 21.3753319 32.8125"></polygon>
                        <text id="A" font-family="Lato-Semibold, Lato" font-size="18.75" font-weight="500" letter-spacing="1.36363661" fill="#FFFFFF">
                            <tspan x="6.00724419" y="23.6875">A</tspan>
                        </text>
                    </g>
                </g>
            </g>
        </g>
    </g>
</svg>