<?xml version="1.0" standalone="no"?>
<!DOCTYPE svg PUBLIC "-//W3C//DTD SVG 20010904//EN"
 "http://www.w3.org/TR/2001/REC-SVG-20010904/DTD/svg10.dtd">
<svg version="1.0" xmlns="http://www.w3.org/2000/svg"
 width="120.000000pt" height="120.000000pt" viewBox="0 0 120.000000 120.000000"
 preserveAspectRatio="xMidYMid meet">
<metadata>
Created by potrace 1.11, written by Peter Selinger 2001-2013
</metadata>
<g transform="translate(0.000000,120.000000) scale(0.100000,-0.100000)"
fill="#000000" stroke="none">
<path d="M754 961 c-49 -12 -54 -18 -44 -52 25 -88 105 -172 176 -185 19 -3
37 -10 40 -15 3 -5 -12 -42 -33 -81 -49 -95 -168 -214 -286 -287 l-88 -54 -34
33 -34 33 24 29 c29 34 38 63 33 104 -2 24 -8 30 -32 32 -41 5 -70 -4 -104
-33 l-29 -24 -33 34 -33 34 25 43 c13 24 32 55 42 71 18 27 18 27 -5 27 -42
-1 -108 -38 -159 -90 -52 -53 -57 -80 -15 -80 13 0 27 -5 30 -10 3 -6 17 -10
29 -10 19 0 22 -4 18 -26 -3 -17 3 -33 18 -49 l22 -23 -26 -45 c-14 -24 -26
-56 -26 -70 0 -24 4 -27 36 -27 19 0 44 5 55 10 13 7 19 7 19 1 0 -7 8 -7 24
0 17 8 29 8 44 0 11 -6 34 -11 51 -11 30 0 31 -1 31 -46 l0 -47 43 7 c67 11
102 52 147 172 6 17 34 48 61 69 116 88 212 227 239 344 20 85 19 170 -2 185
-10 7 -18 18 -18 24 0 5 -7 13 -16 16 -21 8 -151 6 -190 -3z"/>
<path d="M661 666 c-75 -76 -81 -84 -65 -97 26 -21 98 -18 131 7 37 28 55 81
42 128 -5 19 -13 37 -18 40 -4 3 -45 -32 -90 -78z"/>
</g>
</svg>
